[
	{
		"date": "YYYY/MM/DD",
		"version": "0.99.171+",
		"contents": [
			{
				"type": "note",
				"logs": [
					{
						"revision": "",
						"class": "",
						"subject": ""
					},
					{
						"revision": "",
						"subject": ""
					},
					{
						"revision": "",
						"subject": ""
					},
					{
						"revision": "",
						"subject": ""
					}
				]
			},
			{
				"type": "features",
				"logs": [
					{
						"revision": "",
						"subject": ""
					},
					{
						"revision": "",
						"subject": ""
					},
					{
						"revision": "",
						"subject": ""
					},
					{
						"revision": "",
						"subject": ""
					}
				]
			},
			{
				"type": "fixes",
				"logs": [
					{
						"revision": "",
						"subject": "#749: ノートリンクで元ファイルが掴まれている場合、死ぬ"
					},
					{
						"revision": "",
						"subject": "#804: 専用型を拡張する"
					},
					{
						"revision": "",
						"subject": ""
					},
					{
						"revision": "",
						"subject": ""
					}
				]
			},
			{
				"type": "developer",
				"logs": [
					{
						"revision": "",
						"subject": ""
					},
					{
						"revision": "",
						"subject": ""
					},
					{
						"revision": "",
						"subject": ""
					},
					{
						"revision": "",
						"subject": ""
					}
				]
			}
		]
	},
	{
		"date": "2022/04/22",
		"version": "0.99.171",
		"contents": [
			{
				"type": "note",
				"logs": [
					{
						"subject": "このバージョンは動くかどうかよくわからん"
					}
				]
			},
			{
				"type": "features",
				"logs": [
					{
						"revision": "e0a91e3c49b211bc122ac8fca8e68b560024f615",
						"subject": "#803: プラグインをWebからインストール可能にする",
						"comments": [
							"動くかどうかは知らん"
						]
					}
				]
			},
			{
				"type": "fixes",
				"logs": [
					{
						"revision": "7c300ea378f2e226ac1041f2fcdf738d30ff8c9a",
						"subject": "#802: テーマ選択ができていない"
					},
					{
						"revision": "16927da11c417e60bc36e2628f3b90083436e2e5",
						"subject": "#801: Pe 情報コピーでコピーライトの年表示がおかしい",
						"comments": [
							"おかしいも何も固定文字列だった"
						]
					},
					{
						"revision": "f007ada3012531ed414c1d4057af4c28607cadf4",
						"subject": "#794: ノートのタブインデックスが狂ってる"
					},
					{
						"revision": "b60ed63402db3379d44f6d6e5f59fd089ac74b6e",
						"subject": "#722: 通知ログがウィンドウアクティブ状態をまだまだまだまだ奪う",
						"comments": [
							"そろそろコレしんどい"
						]
					},
					{
						"revision": "40b928bf3a446ae23e5662f5c6f8c2e5eec97c29",
						"subject": "#772: コマンドランチャーのアイコンがプラグインIF経由時に壊れる",
						"comments": [
							"めんどいのでアイコンを破棄した",
							"ソースのコメントでもいらんっぽかったし"
						]
					}
				]
			},
			{
				"type": "developer",
				"logs": [
					{
						"revision": "602531069fc0f6a8bdf68d12346b2f43bebb5f90",
						"subject": "#706: プラグイン配布サイトの構築",
						"comments": [
							"https://peserver.gq/plugin",
							"とりあえず作るだけ作った",
							"運用云々は後で考えるとして Pe 本体の課題からは外す",
							"更新用URI処理もえいやで取り込んだ"
						]
					},
					{
						"revision": "a6c52c8fbd1e533798dbd5e088a7fa41c9b5eb88",
						"class": "nuget",
						"subject": "MSTest系更新",
						"comments": [
							"MSTest.TestAdapter 2.2.8 -> 2.2.9",
							"MSTest.TestFramework 2.2.8 -> 2.2.9"
						]
					},
					{
						"revision": "46e47ad39571171c215201cfc3b5dde1365dba06",
						"class": "nuget",
						"subject": "SevenZipExtractor 1.0.16 -> 1.0.17"
					},
					{
						"revision": "a770e264650d5540f322b339f1247bc090e63b1a",
						"subject": "CefSharp を CefSharp.Wpf から CefSharp.Wpf.NETCore に変更",
						"comments": [
							"CefSharp.Wpf 86.0.241 -> CefSharp.Wpf.NETCore 100.0.230"
						]

					},
					{
						"revision": "",
						"subject": ""
					}
				]
			}
		]
	},
	{
		"date": "2022/03/28",
		"version": "0.99.170",
		"contents": [
			{
				"type": "note",
				"logs": [
					{
						"subject": "0.99.169(2022/03/27 21:04 65983c21bfe68d834f5d3e77ae1705d4fbf67020)は致命的にバグってるので除外"
					},
					{
						"class": "compatibility",
						"subject": "#778 対応によりプロキシ設定は本体設定機能に取り込まれました",
						"comments": [
							"既存のプロキシ設定は無効化されます"
						]
					}
				]
			},
			{
				"type": "features",
				"logs": [
					{
						"revision": "0f75a88e690fef216ef5fb6332e137bbaf938cb0",
						"subject": "#778: プロキシをアプリケーション設定から編集可能にする",
						"comments": [
							"残課題は #797 で対応する",
							"既存プロキシ設定はすべて無視"
						]
					}
				]
			},
			{
				"type": "fixes",
				"logs": [
					{
						"revision": "07448dfb753985cc29e5c6366799ab44a760e117",
						"subject": "#799: プラグイン更新の通信処理が腐ってる",
						"comments": [
							"IPC(プラグイン処理)の場合にDBデータを取得できずに死んでいた",
							"プラグインをインストールしていない場合は無関係だけどまぁ"
						]
					}
				]
			},
			{
				"type": "developer",
				"logs": [
					{
						"revision": "4a5e6d54456eed5a6981862813a345867a329e0f",
						"subject": "#798: IDの型を専用にする "
					},
					{
						"revision": "8e635213f723db5b8ab93b915e38513d42a70add",
						"class": "nuget",
						"subject": "Microsoft.Extensions.Logging.Abstractions 6.0.0 -> 6.0.1"
					}
				]
			}
		]
	},
	{
		"date": "2022/03/13",
		"version": "0.99.168",
		"contents": [
			{
				"type": "note",
				"logs": [
					{
						"subject": "機能的には特に何もないリリース。"
					}
				]
			},
			{
				"type": "fixes",
				"logs": [
					{
						"revision": "421f89eea122ff04e166da7623415a30935fa157",
						"subject": "#795: hash_map/linked_list の値解放処理型が腐ってる",
						"comments": [
							"久しぶり過ぎて何が正しいのかもう何もわからない"
						]
					}
				]
			},
			{
				"type": "developer",
				"logs": [
					{
						"revision": "83e5488401e9dfcc711c0c4a8a4bab743eb2eab9",
						"subject": "update npm"
					},
					{
						"revision": "794d92324bdb42b9fe206883d579f886774acaeb",
						"class": "nuget",
						"subject": "AvalonEdit 6.1.2.30 -> 6.1.3.50"
					},
					{
						"revision": "27cef0ae10a59c1f71d8a69a5ebf2af055d32345",
						"class": "nuget",
						"subject": "Microsoft.NET.Test.Sdk 17.0.0 -> 17.1.0"
					},
					{
						"revision": "80ffcf3d7ba368800440534640dc3db6e1c544cf",
						"class": "nuget",
						"subject": "SevenZipExtractor 1.0.15 -> 1.0.16"
					}
				]
			}
		]
	},
	{
		"date": "2021/12/07",
		"version": "0.99.167",
		"contents": [
			{
				"type": "fixes",
				"logs": [
					{
						"revision": "f1b43e8ae52c5c1500e0b636f876f12a40c48def",
						"subject": "#791: 端末がスリープから復帰時にフック処理が有効になっていない"
					}
				]
			}
		]
	},
	{
		"date": "2021/11/28",
		"version": "0.99.166",
		"contents": [
			{
				"type": "note",
				"logs": [
					{
						"subject": "実行基盤を .NET 5 から .NET 6 にバージョンアップ",
						"comments": [
							"たぶん大丈夫だと思うけどテスト全然してないのでなんとも"
						]
					}
				]
			},
			{
				"type": "features",
				"logs": [
					{
						"revision": "8df5ebdcb506899ca295d12da0c9be8e1ac6b079",
						"subject": "#782: VS 2022+.NET 6+C#10への移行",
						"comments": [
							"Microsoft.Extensions.Logging.Abstractions 5.0.0 -> 6.0.0",
							"Microsoft.Extensions.Logging 5.0.0 -> 6.0.0",
							"Microsoft.Extensions.Configuration.Binder 5.0.0 -> 6.0.0",
							"Microsoft.Extensions.Configuration.Json 5.0.0 -> 6.0.0",
							"System.DirectoryServices.AccountManagement 5.0.0 -> 6.0.0",
							"System.Text.Encoding.CodePages 5.0.0 -> 6.0.0",
							"System.Management 5.0.0 -> 6.0.0",
							"Microsoft.NET.Test.Sdk 16.11.0 -> 17.0.0",
							"System.Data.SQLite.Core 1.0.115 -> 1.0.115.5",
							"Dapper 2.0.90 -> 2.0.123"
						]
					},
					{
						"revision": "76aacc7dd4d1f0c5bfc0773dcb7a2e1a260d7095",
						"subject": "#782 実施後にテストフレームワーク再更新",
						"comments": [
							"MSTest.TestAdapter 2.2.7 -> 2.2.8",
							"MSTest.TestFramework 2.2.7 -> 2.2.8"
						]
					}
				]
			},
			{
				"type": "fixes",
				"logs": [
					{
						"revision": "a87759b68c0ea6677bf3d38769aa935356014196",
						"subject": "#784: プラグインテンプレートの取得ダメくない？",
						"comments": [
							"正直ダメでよかった",
							"他に問題がいっぱいあったしまだある"
						]
					},
					{
						"revision": "727409cc2fe086544b4c19c28dddc6a18ef8e0af",
						"subject": "#786: プラグインのテンプレで隠しファイル(.ファイル)がアーカイブされていない"
					}
				]
			},
			{
				"type": "developer",
				"logs": [
					{
						"revision": "6dd5f27c8fc8e9e4aedb7460a2cfb1d28bbd6d93",
						"subject": "アーカイブ作成時の上書き問題対応"
					},
					{
						"revision": "53a01f75305f23a71813912188a5704d317d335d",
						"subject": "ビルド時警告の抑制"
					},
					{
						"revision": "8404eed06f39e1d58b2bbba4a7b9f9ebbaa4cf2a",
						"subject": "[継続課題] #730: node/npm のバージョンアップ",
						"comments": [
							"メジャーバージョン上げたら死ぬのでマイナーバージョンを最新化",
							"各種パッケージモジュールも更新"
						]
					}
				]
			}
		]
	},
	{
		"date": "201/11/16",
		"version": "0.99.165",
		"contents": [
			{
				"type": "features",
				"logs": [
					{
						"revision": "6189ea9e4aea8fad6b740ed575b6d0305cd866a5",
						"subject": "表示要素リセット時にフックを抑制した"
					},
					{
						"revision": "9e195424a687eb2dcb045b56e906fa27d1fbdc0b",
						"subject": "ヘルプ: テーブル一覧のinputの幅を親サイズに収めた"
					}
				]
			},
			{
				"type": "developer",
				"logs": [
					{
						"revision": "d575acf5cfa81193193499218e8f7694c75746b5",
						"subject": "#777: プラグイン実装テンプレートの作成",
						"comments": [
							"いろいろおかしいところあるし失敗するしでハチャメチャだけど一応大丈夫なのでリリースにのせた",
							"ヘルプドキュメントを参照のこと"
						]
					},
					{
						"revision": "d66e07578efd46f7ad812311cde2f3a442dbac7d",
						"subject": "#780: 開発中CIの圧縮を選択可能にする"
					}
				]
			}
		]
	},
	{
		"date": "2021/10/09",
		"version": "0.99.162",
		"contents": [
			{
				"type": "note",
				"logs": [
					{
						"subject": "このバージョンちょっと怪しいかも",
						"comments": [
							"2021/10/09版はアップデートURLの不備により2021/10/10に再リリース(ドキュメントの日付・バージョンはそのまま)"
						]
					}
				]
			},
			{
				"type": "features",
				"logs": [
					{
						"revision": "e47231c06fc1264be420cfd9ddfdb9ec32da9c8f",
						"subject": "#735: プラグイン参照実装を自動アップデート対象にする",
						"comments": [
							"全パターン検証できてないけど！",
							"実装中に分かったけど、実行中アセンブリの上書きが誰も幸せにならくて辛いっていうか、そもそもプラグイン機構としてなんなのMSもうマジでもうマジで。doc見る限り同一(次バージョン)アセンブリの話ししてなかったやん！"
						]
					}
				]
			},
			{
				"type": "developer",
				"logs": [
					{
						"revision": "b0cf6184f4ecbea6cf7815de27c5a5522848feea",
						"subject": "#773: 文字列フルフル64bitを考慮する必要ないでしょ"
					},
					{
						"revision": "3d68ef771907fc1faa825a65d80393350385a747",
						"class": "nuget",
						"subject": "MSTest系更新"
					},
					{
						"revision": "87d481a76b025df52b2cedd80f7d3adf5b734160",
						"class": "nuget",
						"subject": "NLog.Extensions.Logging 1.7.3 -> 1.7.4"
					},
					{
						"revision": "112e8c4f9fa2e40629fbad55c21e82b53bc35c06",
						"class": "nuget",
						"subject": "System.Data.SQLite.Core 1.0.114.3 -> 1.0.115"
					}
				]
			}
		]
	}
]
